<?xml version="1.0" encoding="UTF-8" standalone="no"?>
<!-- Created with Inkscape (http://www.inkscape.org/) -->

<svg
   xmlns:dc="http://purl.org/dc/elements/1.1/"
   xmlns:cc="http://creativecommons.org/ns#"
   xmlns:rdf="http://www.w3.org/1999/02/22-rdf-syntax-ns#"
   xmlns:svg="http://www.w3.org/2000/svg"
   xmlns="http://www.w3.org/2000/svg"
   xmlns:sodipodi="http://sodipodi.sourceforge.net/DTD/sodipodi-0.dtd"
   xmlns:inkscape="http://www.inkscape.org/namespaces/inkscape"
   width="160"
   height="90"
   id="svg2"
   version="1.1"
   inkscape:version="0.48.5 r10040"
   sodipodi:docname="logo.svg">
  <defs
     id="defs4" />
  <sodipodi:namedview
     id="base"
     pagecolor="#ffffff"
     bordercolor="#666666"
     borderopacity="1.0"
     inkscape:pageopacity="0.0"
     inkscape:pageshadow="2"
     inkscape:zoom="3.959798"
     inkscape:cx="136.78536"
     inkscape:cy="-11.200219"
     inkscape:document-units="px"
     inkscape:current-layer="svg2"
     showgrid="false"
     inkscape:window-width="1920"
     inkscape:window-height="1022"
     inkscape:window-x="0"
     inkscape:window-y="29"
     inkscape:window-maximized="1" />
  <metadata
     id="metadata7">
    <rdf:RDF>
      <cc:Work
         rdf:about="">
        <dc:format>image/svg+xml</dc:format>
        <dc:type
           rdf:resource="http://purl.org/dc/dcmitype/StillImage" />
        <dc:title></dc:title>
      </cc:Work>
    </rdf:RDF>
  </metadata>
  <g
     id="g3155"
     transform="matrix(0.08020636,0,0,0.08020636,4.063516,2.4347482)">
    <g
       inkscape:label="bgw"
       id="layer3" />
    <g
       inkscape:label="bg"
       id="layer2">
      <path
         style="fill:#e8e8e8"
         inkscape:connector-curvature="0"
         d="M 1170.5583,22.697173 C 1073.5546,1.4140103 976.92375,9.0142783 889.58622,39.693472 L 1304.0557,326.46195 1257.7568,50.000488 C 1230.004,38.536606 1200.8989,29.352195 1170.5583,22.697173 z m 122.9183,43.701026 83.7722,491.961551 160.829,-226.18198 C 1491.8393,218.66351 1405.8017,123.21175 1293.4766,66.398199 z M 856.1519,52.759644 C 741.64404,102.14827 646.23255,192.31552 592.01893,309.18349 L 1092.9795,216.118 856.1519,52.759644 z m 693.1177,309.676096 -283.707,411.08153 272.237,-51.98858 c 10.9338,-26.87403 19.7272,-55.00776 26.1566,-84.29221 l 2.3399,-11.26436 c 17.865,-91.11051 10.5871,-181.3745 -17.0265,-263.53638 z M 857.35107,292.48951 578.36022,341.51737 c -9.15619,23.90325 -16.69397,48.81423 -22.34731,74.57976 -21.44037,97.72318 -13.52973,195.07551 17.72588,282.92698 L 857.35107,292.48951 z M 741.58961,508.6144 587.9578,734.83471 c 48.87066,110.51523 135.91395,202.81684 248.24918,256.80477 L 741.58961,508.6144 z m 782.53319,243.57737 -488.1926,94.70403 224.4708,155.1736 c 113.3893,-47.92743 208.3493,-135.76479 263.7218,-249.87763 z m -703.9306,-14.608 47.24018,267.79103 c 26.17665,10.5025 53.5223,19.0137 81.98049,25.2536 96.45353,21.1621 192.55823,13.7654 279.50483,-16.4864 L 820.1922,737.58377 z"
         id="path3130" />
    </g>
    <g
       inkscape:label="Layer 1"
       id="layer1">
      <path
         style="fill:#0099ff"
         inkscape:connector-curvature="0"
         d="M 499.34913,145.46574 C 431.94636,131.05624 364.80267,136.2019 304.11637,156.97288 L 592.10951,351.12599 559.9388,163.95112 c -19.28395,-7.76148 -39.50758,-13.97968 -60.58967,-18.48538 z m 85.40952,29.58727 58.20893,333.07657 111.75161,-153.13377 C 722.59049,278.14237 662.80748,213.51793 584.75865,175.05301 z M 280.88462,165.81917 C 201.3191,199.25715 135.02269,260.30378 97.352469,339.42781 L 445.44372,276.41896 280.88462,165.81917 z M 762.49579,375.4816 565.36267,653.79932 754.52593,618.60111 c 7.59734,-18.19475 13.70742,-37.24232 18.1748,-57.06903 l 1.62591,-7.6264 C 786.74005,492.22044 781.68309,431.1083 762.49579,375.4816 z M 281.71788,328.12536 87.861746,361.31907 c -6.36216,16.18342 -11.599773,33.04908 -15.527983,50.49332 -14.897789,66.16229 -9.401097,132.0735 12.316794,191.55229 L 281.71788,328.12536 z M 201.28128,474.45008 94.5306,627.60978 c 33.95767,74.823 94.43951,137.31468 172.49535,173.86653 L 201.28128,474.45008 z M 745.0226,639.36117 405.80311,703.47938 561.77616,808.53779 C 640.56443,776.08911 706.54715,716.61987 745.0226,639.36117 z m -489.12447,-9.89016 32.8247,181.30461 c 18.18881,7.1106 37.18986,12.87305 56.96395,17.09765 67.02045,14.32763 133.79861,9.31978 194.21323,-11.16191 L 255.89813,629.47101 z"
         id="path3041" />
      <text
         transform="scale(1.0130674,0.98710117)"
         sodipodi:linespacing="125%"
         id="text3050"
         y="633.59741"
         x="272.03983"
         style="font-size:53.55126572px;font-style:normal;font-weight:normal;line-height:125%;letter-spacing:0px;word-spacing:0px;fill:#000000;fill-opacity:1;stroke:none;font-family:Sans"
         xml:space="preserve"><tspan
           style="font-size:401.63449097px;fill:#0074e4"
           y="633.59741"
           x="272.03983"
           id="tspan3052"
           sodipodi:role="line">D</tspan></text>
      <text
         transform="scale(1.0130674,0.98710117)"
         sodipodi:linespacing="125%"
         id="text3054"
         y="611.28442"
         x="780.77692"
         style="font-size:53.55126572px;font-style:normal;font-weight:normal;line-height:125%;letter-spacing:0px;word-spacing:0px;fill:#000000;fill-opacity:1;stroke:none;font-family:Sans"
         xml:space="preserve"><tspan
           style="font-size:334.69540405px;fill:#0074e4"
           y="611.28442"
           x="780.77692"
           id="tspan3056"
           sodipodi:role="line">ave</tspan></text>
      <text
         transform="scale(1.0130674,0.98710117)"
         sodipodi:linespacing="125%"
         id="text3058"
         y="843.3399"
         x="905.72986"
         style="font-size:53.55126572px;font-style:normal;font-weight:normal;line-height:125%;letter-spacing:0px;word-spacing:0px;fill:#000000;fill-opacity:1;stroke:none;font-family:Sans"
         xml:space="preserve"><tspan
           style="font-size:267.75631714px;fill:#007ce8"
           y="843.3399"
           x="905.72986"
           id="tspan3060"
           sodipodi:role="line">institute</tspan></text>
    </g>
  </g>
</svg>
